{
  "@context": {
    "ids": "https://w3id.org/idsa/core/",
    "owl": "http://www.w3.org/2002/07/owl#",
    "rdf": "http://www.w3.org/1999/02/22-rdf-syntax-ns#",
    "rdfs": "http://www.w3.org/2000/01/rdf-schema#",
    "schema": "http://schema.org/",
    "xsd": "http://www.w3.org/2001/XMLSchema#",
    "gax-resource": "http://w3id.org/gaia-x/resource#",
    "gax-service": "http://w3id.org/gaia-x/service#",
    "gax-core": "http://w3id.org/gaia-x/core#",
    "ex": "http://example.org/",
    "dct": "http://purl.org/dc/terms/"
  },
  "@id": "ex:DataCenter",
  "@type": "gax-resource:BareMetalNode",
  "gax-resource:hasName": "DataCenter",
  "gax-service:hasNodeName": "DataCenter",
  "dct:hasDescription": "Placeholder Description",
  "dct:location": "Placeholder Location",
  "gax-resource:hasJurisdiction": "Placeholder Jurisdiction",
  "gax-resource:hasName": "DataCenter",
  "gax-resource:location": "Germany",
  "gax-resource:hasJurisdiction": "Germany",
  "gax-resource:hasDescription": "DataCenter of ACME for IaaS",
  "gax-resource:isOperatedBy": {
    "@id": "ex:ACMEProvider",
    "@type": "gax-participant:Provider"
  }
}
